…
``` r
month_df =
  tibble(
    month  = 1:12,
    month_name = month.name
  )

precip_df= 
     bind_rows(precip_2018, precip_2017)

left_join(precip_df, month_df, by = "month")
```

    ## # A tibble: 24 x 4
    ##     year month total month_name
    ##    <dbl> <dbl> <dbl> <chr>     
    ##  1  2018     1  0.94 January   
    ##  2  2018     2  4.8  February  
    ##  3  2018     3  2.69 March     
    ##  4  2018     4  4.69 April     
    ##  5  2018     5  9.27 May       
    ##  6  2018     6  4.77 June      
    ##  7  2018     7 10.2  July      
    ##  8  2018     8  6.45 August    
    ##  9  2018     9 10.5  September 
    ## 10  2018    10  2.12 October   
    ## # … with 14 more rows
…
from route 8 to route 11 are in the format of double, we need to first
convert them to character.

``` r
filter(subway_df_route, route_number == "A") %>% 
  select(route_number, line, station_name) %>% 
  distinct(route_number, line, station_name)
```

    ## # A tibble: 60 x 3
    ##    route_number line            station_name                 
    ##    <chr>        <chr>           <chr>                        
    ##  1 A            42nd St Shuttle Times Square                 
    ##  2 A            8 Avenue        125th St                     
    ##  3 A            8 Avenue        145th St                     
    ##  4 A            8 Avenue        14th St                      
    ##  5 A            8 Avenue        168th St - Washington Heights
    ##  6 A            8 Avenue        175th St                     
    ##  7 A            8 Avenue        181st St                     
    ##  8 A            8 Avenue        190th St                     
    ##  9 A            8 Avenue        34th St                      
    ## 10 A            8 Avenue        42nd St                      
    ## # … with 50 more rows
…
